<?xml version="1.0" encoding="utf-8"?>
<!-- Generator: Adobe Illustrator 16.0.0, SVG Export Plug-In . SVG Version: 6.00 Build 0)  -->
<!DOCTYPE svg PUBLIC "-//W3C//DTD SVG 1.1//EN" "http://www.w3.org/Graphics/SVG/1.1/DTD/svg11.dtd">
<svg version="1.1" id="Layer_1" xmlns="http://www.w3.org/2000/svg" xmlns:xlink="http://www.w3.org/1999/xlink" x="0px" y="0px"
	 width="540.5px" height="136.615px" viewBox="0 0 540.5 136.615" enable-background="new 0 0 540.5 136.615" xml:space="preserve">
<g id="Layer_1_1_">
</g>
<rect x="202.084" y="5.115" fill="#5B9BD5" width="136.666" height="42.416"/>
<text transform="matrix(1 0 0 1 242.1914 22.8516)" fill="#FFFFFF" font-family="'THSarabunNew'" font-size="17">บันทึกข้อมูล</text>
<text transform="matrix(1 0 0 1 242.3906 39.8516)" fill="#FFFFFF" font-family="'THSarabunNew'" font-size="17">พิทักษ์ทรัพย์</text>
<line fill="none" stroke="#5B9BD5" stroke-miterlimit="10" x1="66" y1="83.175" x2="66" y2="69.595"/>
<polygon fill="#5B9BD5" points="62.666,82.341 69.334,82.341 65.834,89.009 "/>
<line fill="none" stroke="#5B9BD5" stroke-miterlimit="10" x1="203" y1="83.175" x2="203" y2="69.595"/>
<polygon fill="#5B9BD5" points="199.666,82.341 206.334,82.341 202.834,89.009 "/>
<line fill="none" stroke="#5B9BD5" stroke-miterlimit="10" x1="337.5" y1="83.175" x2="337.5" y2="69.595"/>
<polygon fill="#5B9BD5" points="334.166,82.341 340.834,82.341 337.334,89.009 "/>
<line fill="none" stroke="#5B9BD5" stroke-miterlimit="10" x1="472.75" y1="83.175" x2="472.75" y2="69.595"/>
<polygon fill="#5B9BD5" points="469.415,82.341 476.084,82.341 472.584,89.009 "/>
<line fill="none" stroke="#5B9BD5" stroke-miterlimit="10" x1="270.502" y1="46.367" x2="270.502" y2="69.929"/>
<line fill="none" stroke="#5B9BD5" stroke-miterlimit="10" x1="65.375" y1="69.595" x2="472.75" y2="69.595"/>
<text transform="matrix(1 0 0 1 41.6079 107.1855)" fill="#5B9BD5" font-family="'THSarabunNew'" font-size="17">บันทึกข้อมูล</text>
<text transform="matrix(1 0 0 1 34.3081 123.1855)" fill="#5B9BD5" font-family="'THSarabunNew'" font-size="17">จัดการทรัพย์สิน</text>
<text transform="matrix(1 0 0 1 172.1084 108.1855)" fill="#5B9BD5" font-family="'THSarabunNew'" font-size="17">บันทึกข้อมูล</text>
<text transform="matrix(1 0 0 1 142.5889 124.1855)" fill="#5B9BD5" font-family="'THSarabunNew'" font-size="17">ประนอมหนี้ก่อนล้มละลาย</text>
<text transform="matrix(1 0 0 1 309.1074 107.1855)" fill="#5B9BD5" font-family="'THSarabunNew'" font-size="17">บันทึกข้อมูล</text>
<text transform="matrix(1 0 0 1 311.5391 123.1855)" fill="#5B9BD5" font-family="'THSarabunNew'" font-size="17">คำพิพากษา</text>
<text transform="matrix(1.0193 0 0 1 442.9004 107.1855)" fill="#5B9BD5" font-family="'THSarabunNew'" font-size="17">บันทึกข้อมูล</text>
<text transform="matrix(1.0193 0 0 1 413.1719 123.1855)" fill="#5B9BD5" font-family="'THSarabunNew'" font-size="17">ประนอมหนี้หลังล้มละลาย</text>
<rect x="4.833" y="89.947" fill="none" stroke="#5B9BD5" stroke-miterlimit="10" width="122.667" height="42.668"/>
<rect x="138.5" y="89.947" fill="none" stroke="#5B9BD5" stroke-miterlimit="10" width="125" height="42.668"/>
<rect x="276.833" y="89.947" fill="none" stroke="#5B9BD5" stroke-miterlimit="10" width="119.999" height="42.668"/>
<rect x="407.5" y="89.947" fill="none" stroke="#5B9BD5" stroke-miterlimit="10" width="128" height="42.668"/>
</svg>
