<?xml version="1.0" encoding="utf-8"?>
<!-- Generator: Adobe Illustrator 16.0.0, SVG Export Plug-In . SVG Version: 6.00 Build 0)  -->
<!DOCTYPE svg PUBLIC "-//W3C//DTD SVG 1.1//EN" "http://www.w3.org/Graphics/SVG/1.1/DTD/svg11.dtd">
<svg version="1.1" id="Layer_1" xmlns="http://www.w3.org/2000/svg" xmlns:xlink="http://www.w3.org/1999/xlink" x="0px" y="0px"
	 width="161.979px" height="135.732px" viewBox="0 0 161.979 135.732" enable-background="new 0 0 161.979 135.732"
	 xml:space="preserve">
<rect x="3.751" y="3.167" fill="#5B9BD5" width="155.583" height="55.583"/>
<text transform="matrix(1 0 0 1 54.0251 21.4026)" fill="#FFFFFF" font-family="'THSarabunNew'" font-size="17">บันทึกข้อมูล</text>
<text transform="matrix(1 0 0 1 46.4861 36.4026)" fill="#FFFFFF" font-family="'THSarabunNew'" font-size="17">ผลการพิจารณา</text>
<text transform="matrix(1 0 0 1 26.511 51.4026)" fill="#FFFFFF" font-family="'THSarabunNew'" font-size="17">ประนีประนอมยอมความ</text>
<line fill="none" stroke="#5B9BD5" stroke-miterlimit="10" x1="81.167" y1="88.645" x2="81.167" y2="58.75"/>
<polygon fill="#5B9BD5" points="77.833,87.811 84.501,87.811 81.001,94.479 "/>
<text transform="matrix(1 0 0 1 52.8127 112.5598)" fill="#5B9BD5" font-family="'THSarabunNew'" font-size="17">บันทึกข้อมูล</text>
<text transform="matrix(1 0 0 1 39.3425 128.5598)" fill="#5B9BD5" font-family="'THSarabunNew'" font-size="17">บันทึกคำพิพากษา</text>
<rect x="3.333" y="94.666" fill="none" stroke="#5B9BD5" stroke-miterlimit="10" width="156.25" height="38.418"/>
</svg>
