<?xml version="1.0" encoding="utf-8"?>
<!-- Generator: Adobe Illustrator 16.0.0, SVG Export Plug-In . SVG Version: 6.00 Build 0)  -->
<!DOCTYPE svg PUBLIC "-//W3C//DTD SVG 1.1//EN" "http://www.w3.org/Graphics/SVG/1.1/DTD/svg11.dtd">
<svg version="1.1" id="Layer_1" xmlns="http://www.w3.org/2000/svg" xmlns:xlink="http://www.w3.org/1999/xlink" x="0px" y="0px"
	 width="172px" height="114.667px" viewBox="0 0 172 114.667" enable-background="new 0 0 172 114.667" xml:space="preserve">
<rect x="4.251" y="4.417" fill="#5B9BD5" width="165.498" height="36"/>
<text transform="matrix(1 0 0 1 11.1782 18.8198)" fill="#FFFFFF" font-family="'THSarabunNew'" font-size="17">แนบเอกสารประกอบกระบวนการ</text>
<text transform="matrix(1 0 0 1 44.6411 34.8198)" fill="#FFFFFF" font-family="'THSarabunNew'" font-size="17">พิจารณาในชั้นศาล</text>
<text transform="matrix(1 0 0 1 57.9805 92.563)" fill="#5B9BD5" font-family="'THSarabunNew'" font-size="17">บันทึกข้อมูล</text>
<text transform="matrix(1 0 0 1 44.5103 106.563)" fill="#5B9BD5" font-family="'THSarabunNew'" font-size="17">บันทึกคำพิพากษา</text>
<rect x="4" y="75.916" fill="none" stroke="#5B9BD5" stroke-miterlimit="10" width="165.917" height="36.418"/>
<line fill="none" stroke="#5B9BD5" stroke-miterlimit="10" x1="87.084" y1="69.166" x2="87.084" y2="40.333"/>
<polygon fill="#5B9BD5" points="83.75,68.332 90.418,68.332 86.918,75 "/>
</svg>
