<?xml version="1.0" encoding="utf-8"?>
<!-- Generator: Adobe Illustrator 16.0.0, SVG Export Plug-In . SVG Version: 6.00 Build 0)  -->
<!DOCTYPE svg PUBLIC "-//W3C//DTD SVG 1.1//EN" "http://www.w3.org/Graphics/SVG/1.1/DTD/svg11.dtd">
<svg version="1.1" id="Layer_1" xmlns="http://www.w3.org/2000/svg" xmlns:xlink="http://www.w3.org/1999/xlink" x="0px" y="0px"
	 width="341.5px" height="127.5px" viewBox="0 0 341.5 127.5" enable-background="new 0 0 341.5 127.5" xml:space="preserve">
<rect x="91.834" y="3.833" fill="#5B9BD5" width="157.583" height="39.833"/>
<text transform="matrix(1 0 0 1 142.8584 20.8193)" fill="#FFFFFF" font-family="'THSarabunNew'" font-size="17">บันทึกข้อมูล</text>
<text transform="matrix(1 0 0 1 126.7344 36.8193)" fill="#FFFFFF" font-family="'THSarabunNew'" font-size="17">ปฏิบัติราชการชดใช้</text>
<line fill="none" x1="171" y1="43.25" x2="171" y2="65"/>
<line fill="none" x1="81.5" y1="64.5" x2="261.75" y2="64.5"/>
<line fill="none" stroke="#5B9BD5" stroke-miterlimit="10" x1="81.667" y1="76.395" x2="81.667" y2="64.5"/>
<polygon fill="#5B9BD5" points="78.333,75.561 85.001,75.561 81.501,82.229 "/>
<line fill="none" stroke="#5B9BD5" stroke-miterlimit="10" x1="262" y1="76.395" x2="262" y2="64.5"/>
<polygon fill="#5B9BD5" points="258.666,75.561 265.334,75.561 261.834,82.229 "/>
<line fill="none" stroke="#5B9BD5" stroke-miterlimit="10" x1="81.5" y1="65.083" x2="262.5" y2="65.083"/>
<text transform="matrix(1 0 0 1 52.813 100.0605)" fill="#5B9BD5" font-family="'THSarabunNew'" font-size="17">บันทึกข้อมูล</text>
<text transform="matrix(1 0 0 1 49.9551 117.0605)" fill="#5B9BD5" font-family="'THSarabunNew'" font-size="17">การผิดสัญญา</text>
<text transform="matrix(1 0 0 1 232.8125 100.3105)" fill="#5B9BD5" font-family="'THSarabunNew'" font-size="17">บันทึกข้อมูล</text>
<text transform="matrix(1 0 0 1 218.3633 117.3105)" fill="#5B9BD5" font-family="'THSarabunNew'" font-size="17">สิ้นสุดงานลาศึกษา</text>
<rect x="2.333" y="83.166" fill="none" stroke="#5B9BD5" stroke-miterlimit="10" width="158.5" height="39.668"/>
<rect x="183" y="83.166" fill="none" stroke="#5B9BD5" stroke-miterlimit="10" width="157.332" height="39.668"/>
<line fill="none" stroke="#5B9BD5" stroke-miterlimit="10" x1="170" y1="42.5" x2="170" y2="65.5"/>
</svg>
