<?xml version="1.0" encoding="utf-8"?>
<!-- Generator: Adobe Illustrator 16.0.0, SVG Export Plug-In . SVG Version: 6.00 Build 0)  -->
<!DOCTYPE svg PUBLIC "-//W3C//DTD SVG 1.1//EN" "http://www.w3.org/Graphics/SVG/1.1/DTD/svg11.dtd">
<svg version="1.1" id="Layer_1" xmlns="http://www.w3.org/2000/svg" xmlns:xlink="http://www.w3.org/1999/xlink" x="0px" y="0px"
	 width="297.5px" height="160px" viewBox="0 0 297.5 160" enable-background="new 0 0 297.5 160" xml:space="preserve">
<rect x="82.584" y="5.333" fill="#5B9BD5" width="138.415" height="42.083"/>
<text transform="matrix(1 0 0 1 125.4414 22.9033)" fill="#FFFFFF" font-family="'THSarabunNew'" font-size="17">บันทึกข้อมูล</text>
<text transform="matrix(1 0 0 1 122.3994 38.9033)" fill="#FFFFFF" font-family="'THSarabunNew'" font-size="17">การออกคำสั่ง</text>
<line fill="none" stroke="#5B9BD5" stroke-miterlimit="10" x1="152.251" y1="47.334" x2="152.251" y2="79.191"/>
<line fill="none" stroke="#5B9BD5" stroke-miterlimit="10" x1="72.875" y1="79.084" x2="228.668" y2="79.084"/>
<line fill="none" stroke="#5B9BD5" stroke-miterlimit="10" x1="73.167" y1="104.999" x2="73.167" y2="78.856"/>
<polygon fill="#5B9BD5" points="69.833,104.166 76.501,104.166 73.001,110.834 "/>
<line fill="none" stroke="#5B9BD5" stroke-miterlimit="10" x1="228.832" y1="104.999" x2="228.832" y2="78.856"/>
<polygon fill="#5B9BD5" points="225.498,104.166 232.166,104.166 228.666,110.834 "/>
<text transform="matrix(1 0 0 1 45.7295 129.2285)" fill="#5B9BD5" font-family="'THSarabunNew'" font-size="17">บันทึกข้อมูล</text>
<text transform="matrix(1 0 0 1 44.0293 146.2285)" fill="#5B9BD5" font-family="'THSarabunNew'" font-size="17">อุทธรณ์คำสั่ง</text>
<text transform="matrix(1 0 0 1 201.0625 129.2285)" fill="#5B9BD5" font-family="'THSarabunNew'" font-size="17">บันทึกข้อมูล</text>
<text transform="matrix(1 0 0 1 181.7871 146.2285)" fill="#5B9BD5" font-family="'THSarabunNew'" font-size="17">สิ้นสุดงานทางละเมิด</text>
<rect x="6.333" y="110.999" fill="none" stroke="#5B9BD5" stroke-miterlimit="10" width="134" height="43.667"/>
<rect x="160.666" y="110.999" fill="none" stroke="#5B9BD5" stroke-miterlimit="10" width="134" height="43.667"/>
</svg>
