<?xml version="1.0" encoding="utf-8"?>
<!-- Generator: Adobe Illustrator 16.0.0, SVG Export Plug-In . SVG Version: 6.00 Build 0)  -->
<!DOCTYPE svg PUBLIC "-//W3C//DTD SVG 1.1//EN" "http://www.w3.org/Graphics/SVG/1.1/DTD/svg11.dtd">
<svg version="1.1" id="Layer_1" xmlns="http://www.w3.org/2000/svg" xmlns:xlink="http://www.w3.org/1999/xlink" x="0px" y="0px"
	 width="200px" height="200px" viewBox="0 0 200 200" enable-background="new 0 0 200 200" xml:space="preserve">
<g>
	<path fill="#03A9F4" d="M188,182.369H10.51c-3.226,0-6.206-1.727-7.809-4.526c-1.604-2.799-1.586-6.242,0.045-9.025L91.49,17.448
		C93.105,14.693,96.061,13,99.254,13s6.149,1.693,7.764,4.448l88.745,151.369c1.632,2.783,1.649,6.227,0.046,9.025
		C194.205,180.643,191.227,182.369,188,182.369z M26.219,164.369h146.072L99.254,39.795L26.219,164.369z"/>
</g>
<g>
	<path fill="#03A9F4" d="M88.661,142.328c0-6.203,4.33-10.65,10.533-10.65c6.202,0,10.299,4.447,10.416,10.65
		c0,6.084-4.097,10.648-10.416,10.648C92.875,152.977,88.661,148.412,88.661,142.328z M92.523,125.826l-2.692-53.018h18.608
		l-2.574,53.018H92.523z"/>
</g>
</svg>
